    _            _                    _  _____  _             _ 
   / \    _ __  (_) _ __ ___    __ _ | ||  ___|(_) _ __    __| |
  / _ \  | '_ \ | || '_ ` _ \  / _` || || |_   | || '_ \  / _` |
 / ___ \ | | | || || | | | | || (_| || ||  _|  | || | | || (_| |
/_/   \_\|_| |_||_||_| |_| |_| \__,_||_||_|    |_||_| |_| \__,_|
                                                                
